{
    "KPlugin": {
        "Authors": [
            {
                "Email": "svenbrauch@googlemail.com",
                "Name": "Sven Brauch",
                "Name[ca@valencia]": "Sven Brauch",
                "Name[ca]": "Sven Brauch",
                "Name[cs]": "Sven Brauch",
                "Name[de]": "Sven Brauch",
                "Name[el]": "Sven Brauch",
                "Name[en_GB]": "Sven Brauch",
                "Name[es]": "Sven Brauch",
                "Name[et]": "Sven Brauch",
                "Name[fi]": "Sven Brauch",
                "Name[fr]": "Sven Brauch",
                "Name[gl]": "Sven Brauch",
                "Name[it]": "Sven Brauch",
                "Name[ka]": "Sven Brauch",
                "Name[ko]": "Sven Brauch",
                "Name[nl]": "Sven Brauch",
                "Name[nn]": "Sven Brauch",
                "Name[pl]": "Sven Brauch",
                "Name[pt]": "Sven Brauch",
                "Name[pt_BR]": "Sven Brauch",
                "Name[ru]": "Sven Brauch",
                "Name[sk]": "Sven Brauch",
                "Name[sl]": "Sven Brauch",
                "Name[sv]": "Sven Brauch",
                "Name[tr]": "Sven Brauch",
                "Name[uk]": "Sven Brauch",
                "Name[x-test]": "xxSven Brauchxx",
                "Name[zh_CN]": "Sven Brauch",
                "Name[zh_TW]": "Sven Brauch"
            }
        ],
        "Category": "Debugging",
        "Description": "This plugin provides a frontend for PDB",
        "Description[ca@valencia]": "Este connector proveïx d'un frontal per al PDB",
        "Description[ca]": "Aquest connector proveeix d'un frontal per al PDB",
        "Description[cs]": "Tento modul poskytuje rozhraní pro PDB",
        "Description[de]": "Dieses Modul stellt eine Oberfläche für PDB zur Verfügung.",
        "Description[el]": "Αυτό το πρόσθετο παρέχει ένα περιβάλλον χρήσης για το PDB",
        "Description[en_GB]": "This plugin provides a frontend for PDB",
        "Description[es]": "Este complemento proporciona una interfaz para PDB",
        "Description[et]": "See plugin pakub PDB kasutajaliidest",
        "Description[fi]": "Tämä liitännäinen tarjoaa PDB-käyttöliittymän",
        "Description[fr]": "Ce module externe fournit une interface pour PDB",
        "Description[gl]": "Este complemento fornece unha interface para PDB.",
        "Description[it]": "Questa estensione fornisce un'interfaccia per PDB",
        "Description[ka]": "ეს დამატება PDB-ის წინაბოლოს წარმოადგენს",
        "Description[ko]": "이 플러그인은 PDB 프론트엔드를 제공합니다",
        "Description[nl]": "Deze plug-in levert een frontend voor PDB",
        "Description[nn]": "Dette programtillegget gjev ei brukarflate for PDB",
        "Description[pl]": "Wtyczka ta zapewnia nakładkę graficzną dla PDB",
        "Description[pt]": "Este 'plugin' oferece uma interface para o PDB",
        "Description[pt_BR]": "Este plugin fornece uma interface para o PDB",
        "Description[ru]": "Этот модуль предоставляет интерфейс к PDB",
        "Description[sk]": "Tento plugin poskytuje rozhranie pre PDB",
        "Description[sl]": "Ta vstavek ponuja začelje za PDB",
        "Description[sv]": "Insticksprogrammet tillhandahåller ett gränssnitt för PDB",
        "Description[tr]": "Bu eklenti PDB için bir ön uç sağlar",
        "Description[uk]": "Цей додаток є графічною оболонкою до PDB",
        "Description[x-test]": "xxThis plugin provides a frontend for PDBxx",
        "Description[zh_CN]": "插件提供了 PDB 前端",
        "Description[zh_TW]": "此外掛程式提供了 PDB 的前端",
        "Icon": "text-x-python",
        "Id": "kdevpdb",
        "License": "GPL",
        "Name": "Python Debugger (PDB) support",
        "Name[ca@valencia]": "Implementació del depurador de Python (PDB)",
        "Name[ca]": "Implementació del depurador de Python (PDB)",
        "Name[cs]": "Podpora ladění pro Python (PDB)",
        "Name[de]": "Unterstützung für Python Debugger (PDB)",
        "Name[el]": "Υποστήριξη διορθωτή σφαλμάτων Python (PDB)",
        "Name[en_GB]": "Python Debugger (PDB) support",
        "Name[es]": "Implementación del depurador Python (PDB)",
        "Name[et]": "Pythoni siluri (PDB) toetus",
        "Name[fi]": "Python-virheenpaikannustuki (PDB)",
        "Name[fr]": "Prise en charge du débogueur Python (pdb)",
        "Name[gl]": "Compatibilidade co depurador de Python (PDB)",
        "Name[it]": "Supporto al debugger di Python (PDB)",
        "Name[ka]": "Python-ს გამმართველის (PDB) მხარდაჭერა",
        "Name[ko]": "파이썬 디버거(PDB) 지원",
        "Name[nl]": "Ondersteuning voor Python-debugger",
        "Name[nn]": "Støtte for Python Debugger (PDB)",
        "Name[pl]": "Obsługa diagnostyki Pythona (PDB)",
        "Name[pt]": "Suporte para o Depurador de Python (PDB)",
        "Name[pt_BR]": "Suporte ao Python Debugger (PDB)",
        "Name[ru]": "Поддержка отладчика Python (PDB)",
        "Name[sk]": "Podpora Python Debugger-a (PDB)",
        "Name[sl]": "Podpora razhroščevalniku za Python (PDB)",
        "Name[sv]": "Stöd för Python-avlusare (PDB)",
        "Name[tr]": "Python Hata Ayıklayıcı (PDB) desteği",
        "Name[uk]": "Підтримка засобу діагностики Python (PDB)",
        "Name[x-test]": "xxPython Debugger (PDB) supportxx",
        "Name[zh_CN]": "Python 调试器 (PDB) 支持",
        "Name[zh_TW]": "Python 偵錯器 (PDB) 支援",
        "ServiceTypes": [
            "KDevelop/Plugin"
        ]
    },
    "X-KDevelop-Category": "Global",
    "X-KDevelop-IRequired": [
        "org.kdevelop.IExecuteScriptPlugin"
    ],
    "X-KDevelop-Mode": "GUI"
}
